489359474;02-08-2019 21:43:44
489208734;02-08-2019 20:33:36
489649063;03-08-2019 00:12:47
489969780;03-08-2019 08:13:59
489568445;02-08-2019 23:24:19
490085496;03-08-2019 09:47:12
490154143;03-08-2019 10:28:05
489848187;03-08-2019 04:23:05
489834889;03-08-2019 03:51:27
489880411;03-08-2019 05:49:01
483254738;31-07-2019 09:58:57
496317992;06-08-2019 10:36:56
496221471;06-08-2019 09:52:41
498525756;07-08-2019 09:02:58
505266877;10-08-2019 09:31:12
515709492;15-08-2019 13:01:05
519110408;17-08-2019 09:07:50
555896907;04-09-2019 17:13:56
538638130;27-08-2019 09:49:20
556278236;04-09-2019 20:21:09
556086500;04-09-2019 18:46:49
559322950;06-09-2019 09:37:22
571520889;12-09-2019 12:20:46
579937169;17-09-2019 11:27:08
583623626;19-09-2019 09:06:50
596497379;26-09-2019 12:26:00
596498574;26-09-2019 12:27:52
596507139;26-09-2019 12:33:59
596505377;26-09-2019 12:33:01
596497922;26-09-2019 12:26:46
596505671;26-09-2019 12:33:13
596497011;26-09-2019 12:25:18
596494508;26-09-2019 12:23:41
596497322;26-09-2019 12:25:45
596498312;26-09-2019 12:27:26
596497127;26-09-2019 12:25:32
596499056;26-09-2019 12:28:43
596498929;26-09-2019 12:28:28
