<svg xmlns="http://www.w3.org/2000/svg" width="100" height="24" viewBox="0 0 100 24">
  <g fill="none" transform="translate(0 1.5)">
    <path fill="#A5C73C" d="M32.6647307 0C25.7023793 0 21.9450837 5.37473912 21.9450837 10.4199923 21.9450837 15.4652455 25.7023793 20.8348364 32.6647307 20.8348364 39.627082 20.8348364 43.3895388 15.4703937 43.3895388 10.4199923 43.3895388 5.3695909 39.6322432 0 32.6647307 0zM32.6647307 16.4331104C31.0704451 16.4521213 29.5375094 15.8209364 28.4208679 14.6857036 27.3042264 13.5504709 26.7007196 12.0096432 26.7500868 10.4199923 26.7500868 7.1615911 29.3981631 4.52013501 32.6647307 4.52013501 35.9312983 4.52013501 38.5793746 7.1615911 38.5793746 10.4199923 38.6316667 12.0109382 38.0292828 13.5539832 36.9121547 14.690683 35.7950265 15.8273828 34.2603881 16.4588001 32.6647307 16.4382586L32.6647307 16.4331104zM21.0522099 8.46881787L10.7557748 8.46881787C10.6189552 8.46881787 10.508041 8.57945477 10.508041 8.71593231L10.508041 12.494724C10.51085 12.6291869 10.6209457 12.7367194 10.7557748 12.7366902L16.2007568 12.7366902C15.3257883 14.9881522 13.1401959 16.4600468 10.719647 16.4279622 9.12398958 16.4485036 7.58935116 15.8170864 6.472223 14.6803866 5.35509484 13.5436867 4.75271095 12.0006418 4.80500305 10.4096959 4.75415077 8.81962778 5.35717316 7.27793912 6.47414013 6.14237552 7.59110711 5.00681193 9.12491502 4.37609374 10.719647 4.39657779 12.7311019 4.36262615 14.6140498 5.37984372 15.6846447 7.07879913 15.7217771 7.14140699 15.7873753 7.18182225 15.8601228 7.1869117 15.9340347 7.19741303 16.0085936 7.17262221 16.0614065 7.11998487L19.0961453 4.11857404C19.1795356 4.02646151 19.1795356 3.88634886 19.0961453 3.79423633 17.1504029 1.35398122 14.1672754 0 10.719647 0 3.75729561 0 0 5.36444269 0 10.4096959 0 15.4549491 3.75729561 20.82454 10.719647 20.82454 17.6819983 20.82454 21.4392939 15.4446526 21.4392939 10.4096959 21.4374943 9.82824997 21.3874325 9.24795102 21.2896214 8.67474657 21.2718906 8.55727748 21.1712946 8.47002138 21.0522099 8.46881787z"/>
    <path fill="#48316C" d="M58.8625776 10.0544689C58.8625559 9.87164752 59.0096314 9.72264737 59.1928893 9.71983473L61.1592761 9.71983473C61.3476629 9.72319445 61.5054452 9.86309469 61.5308768 10.0493207L61.6753882 11.2951893C61.6753882 11.4753769 61.7321605 11.6246752 61.7579661 11.6246752 61.8520433 11.5472229 61.9308077 11.4529419 61.9902165 11.3466715 62.3302092 10.8309968 62.7480263 10.3708104 63.2288854 9.98239383 63.723598 9.65492202 64.3022595 9.47621773 64.8959273 9.46757207 65.1500038 9.46402014 65.403895 9.4829713 65.654612 9.52420246L65.8817013 9.57053642C66.057685 9.64243032 66.1604727 9.82613127 66.129435 10.0132831L65.7268676 12.139497C65.7124838 12.2243402 65.6626992 12.2991167 65.5898815 12.3452501 65.5170639 12.3913835 65.4280469 12.4045444 65.3449447 12.3814632L65.0920498 12.3351292C64.8888728 12.3039967 64.6834028 12.2902182 64.4778765 12.2939435 64.017197 12.3101683 63.5717198 12.4624703 63.1979187 12.731542 62.8050079 13.0882155 62.4813365 13.5140446 62.2431114 13.9877071 62.1489265 14.1842826 62.0962262 14.3980614 62.0882778 14.6157896L62.0882778 20.2788289C62.0854581 20.4616286 61.9360845 20.6083365 61.752805 20.6083148L59.1722448 20.6083148C58.9898187 20.6083148 58.8419331 20.460799 58.8419331 20.2788289L58.8625776 10.0544689zM66.9397309 10.0544689C66.9397092 9.87164752 67.0867848 9.72264737 67.2700426 9.71983473L69.8506028 9.71983473C70.0358793 9.71983473 70.1860756 9.86965554 70.1860756 10.0544689L70.1860756 20.2479396C70.1832559 20.4307393 70.0338824 20.5774472 69.8506028 20.5774255L67.2700426 20.5774255C67.0876165 20.5774255 66.9397309 20.4299097 66.9397309 20.2479396L66.9397309 10.0544689z"/>
    <path fill="#A5C73C" d="M66.9397309,6.6000149 C66.9397092,6.41719354 67.0867848,6.26819339 67.2700426,6.26538076 L69.8506028,6.26538076 C69.9395757,6.26538076 70.0249046,6.30063675 70.0878179,6.36339283 C70.1507313,6.4261489 70.1860756,6.5112644 70.1860756,6.6000149 L70.1860756,8.19081412 C70.1860756,8.37562745 70.0358793,8.52544826 69.8506028,8.52544826 L67.2700426,8.52544826 C67.0867848,8.52263563 66.9397092,8.37363547 66.9397309,8.19081412 L66.9397309,6.6000149 Z"/>
    <path fill="#48316C" d="M72.3382628 10.0544689C72.3382411 9.87164752 72.4853167 9.72264737 72.6685745 9.71983473L74.6349614 9.71983473C74.8252946 9.72601668 74.9859879 9.86279883 75.0220454 10.0493207L75.13559 10.790664C75.1665568 10.9708516 75.2078457 11.1201499 75.2336513 11.1201499 75.3404902 11.0611029 75.4379028 10.986491 75.5226741 10.8987765 75.9022153 10.5570004 76.3039335 10.2405567 76.7252151 9.95150452 77.8822359 9.30996595 79.2893621 9.30996595 80.4463829 9.95150452 80.8201289 10.2515938 81.1410809 10.6117622 81.396029 11.0171856 81.4374778 11.0898044 81.5105438 11.1389515 81.5935733 11.1500618 81.6766029 11.161172 81.7600709 11.1329709 81.8192409 11.0738159 82.2221874 10.6884139 82.6478795 10.3273943 83.0940376 9.99269026 83.6611661 9.63523333 84.3228334 9.45588195 84.9933299 9.47786851 85.9975089 9.40022144 86.9715256 9.84131954 87.5738901 10.6465139 88.1209688 11.429043 88.3583804 13.5243675 88.3583804 13.5243675 88.3583804 13.7097033 88.3945082 14.0031517 88.3945082 14.1884876L88.3945082 20.2479396C88.3945082 20.4299097 88.2466226 20.5774255 88.0641965 20.5774255L85.4836363 20.5774255C85.3003568 20.5774472 85.1509832 20.4307393 85.1481635 20.2479396L85.1481635 14.5849003C85.1481635 14.3995645 85.1481635 14.1009679 85.1223579 13.9207803 85.0991344 13.4786196 85.0014272 13.0435172 84.8333352 12.6337259 84.5855612 12.3231578 84.197227 12.1585284 83.8011111 12.1961274 83.2591935 12.1961274 82.1960027 13.0352868 82.1960027 13.0352868 82.0409974 13.1743752 81.9465537 13.368332 81.9327855 13.5758497L81.9327855 20.2685325C81.9327855 20.4505025 81.7849 20.5980184 81.6024738 20.5980184L79.0219137 20.5980184C78.8386341 20.59804 78.6892605 20.4513322 78.6864408 20.2685325L78.6864408 14.6054932C78.6864408 14.4201574 78.6864408 14.1215607 78.6864408 13.9413731 78.6632173 13.4992124 78.5655101 13.06411 78.3974181 12.6543187 78.1496441 12.3437507 77.7613099 12.1791212 77.365194 12.2167202 76.807793 12.2167202 75.7807301 13.0558797 75.7807301 13.0558797 75.6262755 13.1948206 75.5334549 13.3892566 75.5226741 13.5964425L75.5226741 20.2891254C75.5198544 20.4719251 75.3704808 20.6186329 75.1872012 20.6186113L72.6066411 20.6186113C72.424215 20.6186113 72.2763294 20.4710954 72.2763294 20.2891254L72.3382628 10.0544689zM56.865224 8.75196983C56.5918284 8.18428216 56.1801609 7.69399422 55.6678441 7.32591357 55.1323883 6.95620233 54.5290543 6.69552784 53.8924187 6.55882916 53.2798036 6.45012078 52.6609887 6.37962501 52.0395765 6.34775224 51.8589373 6.34775224 51.5595923 6.34775224 51.373792 6.34775224L46.8165227 6.34775224C46.7289186 6.34775224 46.6449025 6.38246583 46.582957 6.44425643 46.5210116 6.50604703 46.486211 6.58985306 46.486211 6.67723816L46.486211 20.2479396C46.486211 20.4299097 46.6340966 20.5774255 46.8165227 20.5774255L49.3970829 20.5774255C49.5803624 20.5774472 49.729736 20.4307393 49.7325557 20.2479396L49.7325557 9.19986476C49.732534 9.0170434 49.8796095 8.86804325 50.0628674 8.86523062L51.8640984 8.86523062C53.3763067 8.86523062 54.1659581 9.57568464 54.1659581 10.9245176 54.1659581 13.1073619 51.7557149 13.2000298 51.2241195 13.2000298 51.139238 13.202717 51.0589089 13.2389514 51.0008257 13.3007518 50.9427426 13.3625523 50.91167 13.4448493 50.9144522 13.5295157L50.9144522 15.429208C50.9144522 15.611178 51.0623378 15.7586939 51.2447639 15.7586939L51.3944364 15.7586939C51.5802368 15.7586939 51.8795818 15.7586939 52.060221 15.7586939 52.6719939 15.7210945 53.279621 15.6332777 53.8769353 15.4961348 54.521645 15.3220765 55.1263563 15.0248478 55.6575218 14.6209378 56.1752419 14.2190871 56.5922242 13.7026872 56.8755462 13.1125101 57.188757 12.4335869 57.3423366 11.6922608 57.3245637 10.9451105 57.3453547 10.1883039 57.1880345 9.43717065 56.865224 8.75196983zM99.3309222 12.3557221C99.1557351 11.7525119 98.8608823 11.190541 98.463854 10.7031443 98.0778338 10.2271906 97.5868036 9.84662445 97.0290626 9.59112929 96.3900873 9.31283356 95.697757 9.17752526 95.0007423 9.19471654 94.3434538 9.19255463 93.692982 9.32758466 93.0911277 9.59112929 92.476919 9.85396916 91.9208916 10.2353917 91.4550526 10.7134407 90.9625763 11.235622 90.5722366 11.8449852 90.3041228 12.5101686 90.0022304 13.2664224 89.8531426 14.0747328 89.8654275 14.8886451 89.8509275 15.7092244 89.9927912 16.5250852 90.2834783 17.2928627 90.5415429 17.9625485 90.9370843 18.5710362 91.4447303 19.0792942 91.9451997 19.5696171 92.5429147 19.9501463 93.1995113 20.1964574 93.8948292 20.4531165 94.63096 20.5821841 95.3723429 20.5774255 96.0548785 20.5748306 96.732626 20.4636034 97.3800187 20.2479396 97.9163989 20.0494872 98.4344624 19.8048835 98.9283549 19.5168927 99.0893195 19.4247297 99.146693 19.2209905 99.0573829 19.0587014L98.2986982 17.6944237C98.2080077 17.5328306 98.0080782 17.4678479 97.8393585 17.5451254 97.1873545 17.8493389 96.4901139 18.0458169 95.7749103 18.126874 95.1156299 18.1466833 94.4681413 17.9494849 93.9323904 17.5657183 93.1704577 16.8500934 92.75003 15.8447128 92.7762994 14.8011255 92.7227135 13.8354713 93.0506704 12.8873284 93.6898177 12.1600898 94.0596424 11.8250129 94.5424377 11.6412006 95.0420312 11.6452681 95.5800536 11.5942865 96.1076764 11.8168046 96.445856 12.2373131 96.6465523 12.6115506 96.7743915 13.020312 96.8226178 13.441996 96.8348375 13.5262064 96.8091409 13.6115004 96.7524081 13.6750411 96.6956753 13.7385818 96.6137012 13.773879 96.5284339 13.7714819L94.4639858 13.7714819C94.2807062 13.7714603 94.1313326 13.9181681 94.1285129 14.1009679L94.1285129 15.8204725C94.1285129 16.0052859 94.2787092 16.1551067 94.4639858 16.1551067L99.1554441 16.1551067C99.3445918 16.1523573 99.5070024 16.0201957 99.5476893 15.8359172L99.578656 15.593951C99.578656 15.3519847 99.619945 14.6981611 99.619945 14.4047127 99.6236278 13.7113556 99.5262694 13.0211451 99.3309222 12.3557221z"/>
  </g>
</svg>
