<svg xmlns="http://www.w3.org/2000/svg" width="132" height="24" viewBox="0 0 132 24">
    <g fill="none" fill-rule="evenodd">
        <path fill="#00309C" d="M43.2251005 21.619255C42.5588421 21.7872093 41.7888861 21.8912245 41.0809313 21.8912245 39.2681442 21.8912245 39.1653628 20.8539871 39.1653628 20.4809172 39.1653628 20.1273383 39.2681442 19.1522183 41.0809313 19.1522183L43.2251005 19.1522183 43.2251005 21.619255zM41.767308 12.9313471C40.2687198 12.9313471 39.2921061 13.1169677 38.1662471 13.760369 37.8125414 13.9685806 37.6439153 14.3416568 37.6439153 14.7147252 37.6439153 15.2331561 38.1020562 15.6479458 38.6660767 15.6479458 38.85354 15.6479458 39.0825134 15.5646968 39.2487558 15.4604981 39.9775666 15.0253084 40.5185492 14.9003458 41.4980979 14.9003458 42.5806066 14.9003458 43.2251005 15.5854606 43.2251005 16.4562031L43.2251005 17.1830346 41.0809313 17.1830346C39.8105866 17.1830346 38.8116572 17.4938052 38.1020562 18.0940328 37.3955612 18.6753151 37.0202696 19.4644459 37.0202696 20.4809172 37.0202696 21.4959298 37.3955612 22.3459037 38.1020562 22.947953 38.8116572 23.5512774 39.8105866 23.8604083 41.0809313 23.8604083 42.2477492 23.8604083 43.4341419 23.6746019 44.4546572 23.3210231 44.9947235 23.1350346 45.3707449 22.6357254 45.3707449 22.0560821L45.3707449 16.4562031C45.3707449 14.6105265 44.1009515 12.9313471 41.767308 12.9313471zM67.1742875 17.7002508L65.1347167 17.0373585C64.695972 16.8918101 64.2811814 16.5588163 64.2811814 16.0194271 64.2811814 15.3148258 64.8430122 14.9004 65.6963689 14.9004 66.3836619 14.9004 67.2370108 15.0652568 67.7576965 15.3148258 67.9038205 15.3789445 68.112132 15.4192026 68.2589936 15.4192026 68.8186271 15.4192026 69.2573718 14.9628852 69.2573718 14.42496 69.2573718 13.9894065 68.9872532 13.6163303 68.5708165 13.44984 67.8815125 13.1377935 67.1543478 12.9312155 65.7387953 12.9312155 63.656076 12.9312155 62.1355447 14.2389677 62.1355447 16.0626039 62.1355447 17.6186415 63.0099282 18.4879239 64.1350574 18.9039848L65.8419494 19.5253432C66.6133652 19.7956738 67.2370108 20.0454194 67.2370108 20.8106872 67.2370108 21.5167517 66.7154167 21.8912787 65.7164873 21.8912787 64.8011294 21.8912787 64.1134793 21.7040152 63.5514621 21.4127365 63.4053381 21.3517115 63.2180612 21.2885009 63.0726593 21.2885009 62.4892504 21.2885009 62.0325769 21.7872635 62.0325769 22.3266488 62.0325769 22.7397948 62.2818551 23.0935556 62.6772572 23.2793625 63.4470346 23.6329412 64.4468802 23.8602808 65.6764369 23.8602808 67.9038205 23.8602808 69.3824689 22.429207 69.3824689 20.6041138 69.3824689 19.091431 68.5485007 18.1580268 67.1742875 17.7002508M56.8343471 12.9312697C55.7942647 12.9312697 54.7737494 13.2210968 53.9194765 13.781249 53.2742527 13.2433161 52.3984016 12.9312697 51.4002021 12.9312697 50.1924099 12.9312697 49.1307494 13.1170761 48.0475031 13.53168 47.5266388 13.7382581 47.1731195 14.2390219 47.1731195 14.7977187L47.1731195 22.781383C47.1731195 23.3834323 47.6521009 23.8603355 48.2548984 23.8603355 48.8397748 23.8603355 49.3187562 23.3834323 49.3187562 22.781383L49.3187562 15.191551C49.9842847 15.004289 50.4431478 14.9004542 51.1928068 14.9004542 52.1074271 14.9004542 52.8996988 15.2110452 52.8996988 16.4162369L52.8996988 22.781383C52.8996988 23.3834323 53.3779504 23.8603355 53.9620892 23.8603355 54.5648866 23.8603355 55.0438758 23.3834323 55.0438758 22.781383L55.0438758 15.4398426C55.56474 15.1084877 56.1898454 14.9004542 56.8343471 14.9004542 57.8131581 14.9004542 58.6262781 15.7103535 58.6262781 16.6851097L58.6262781 22.781383C58.6262781 23.3834323 59.0827652 23.8603355 59.6872087 23.8603355 60.2914736 23.8603355 60.7702687 23.3834323 60.7702687 22.781383L60.7702687 16.8501492C60.7702687 14.6106348 59.0827652 12.9312697 56.8343471 12.9312697M2.30004798 17.4312681C2.30004798 15.6894271 3.00873812 14.9002916 4.32095711 14.9002916 5.65274548 14.9002916 6.36143485 15.710369 6.36143485 17.4312681L2.30004798 17.4312681zM4.32095711 12.9312929C3.11243499 12.9312929 2.07015833 13.3249471 1.30111546 14.0918555.551275793 14.8392697.155872588 15.876689.155872588 17.0789644L.155872588 19.6917314C.155872588 20.9147752.551275793 21.9520119 1.30111546 22.6981525 2.07015833 23.4665169 3.11243499 23.8603537 4.32095711 23.8603537 5.42285584 23.8603537 6.48689619 23.6330141 7.48491402 23.1559285 7.85928776 22.968665 8.02662494 22.6165432 8.02662494 22.2227063 8.02662494 21.6831391 7.52661282 21.247769 7.00666327 21.247769 6.86108435 21.247769 6.71513972 21.2885737 6.56883014 21.3516023 5.86087144 21.6623729 5.11103224 21.8911695 4.32095711 21.8911695 3.61299918 21.8911695 3.06982228 21.641424 2.71776353 21.185287 2.44617508 20.81076 2.30004798 20.2518828 2.30004798 19.4019097L7.15224141 19.4019097C7.90280894 19.4019097 8.50561412 18.8015001 8.50561412 18.0539025L8.50561412 17.0789644C8.50561412 15.876689 8.08844753 14.8392697 7.33878692 14.0918555 6.59041059 13.3249471 5.54977927 12.9312929 4.32095711 12.9312929zM29.8659085 17.4312681C29.8659085 15.6894271 30.5745932 14.9002916 31.8855318 14.9002916 33.2186075 14.9002916 33.9265624 15.710369 33.9265624 17.4312681L29.8659085 17.4312681zM31.8855318 12.9312929C30.6790285 12.9312929 29.6360188 13.3249471 28.8669713 14.0918555 28.1171336 14.8392697 27.7217315 15.876689 27.7217315 17.0789644L27.7217315 19.6917314C27.7217315 20.9147752 28.1171336 21.9520119 28.8669713 22.6981525 29.6360188 23.4665169 30.6790285 23.8603537 31.8855318 23.8603537 32.9903562 23.8603537 34.0520245 23.6330141 35.0509539 23.1559285 35.4253292 22.968665 35.5924878 22.6165432 35.5924878 22.2227063 35.5924878 21.6831391 35.0926504 21.247769 34.5717861 21.247769 34.4271219 21.247769 34.280268 21.2885737 34.1363336 21.3516023 33.4274626 21.6623729 32.6768873 21.8911695 31.8855318 21.8911695 31.1773906 21.8911695 30.6373242 21.641424 30.2836186 21.185287 30.0122188 20.81076 29.8659085 20.2518828 29.8659085 19.4019097L34.7188341 19.4019097C35.4686718 19.4019097 36.0714692 18.8015001 36.0714692 18.0539025L36.0714692 17.0789644C36.0714692 15.876689 35.6550325 14.8392697 34.9046435 14.0918555 34.1555358 13.3249471 33.1156398 12.9312929 31.8855318 12.9312929zM26.4155139 13.0976052C25.893912 12.9921368 25.3741504 12.9312929 24.8547459 12.9312929 23.0845793 12.9312929 21.7520548 14.2583535 21.7520548 16.0195045L21.7520548 22.7814008C21.7520548 23.3834505 22.2310362 23.8603537 22.8338414 23.8603537 23.4179802 23.8603537 23.8962318 23.3834505 23.8962318 22.7814008L23.8962318 15.8544619C23.8962318 15.3373006 24.3333304 14.9002916 24.8547459 14.9002916 25.1866871 14.9002916 25.5612409 14.9849961 25.893912 15.0653342 26.0618082 15.1085032 26.1238016 15.1085032 26.2490852 15.1085032 26.8535287 15.1085032 27.2697791 14.6729497 27.2697791 14.1126194 27.2697791 13.6164077 26.9146136 13.1987071 26.4155139 13.0976052M17.7413824 18.0539025C17.7413824 20.2311166 16.4717753 21.5583577 14.2440268 21.5583577L12.3280934 21.5583577 12.3280934 11.2087587 14.2440268 11.2087587C16.4717753 11.2087587 17.7413824 12.516689 17.7413824 14.714671L17.7413824 18.0539025zM14.2239085 9.11406194L11.4747367 9.11406194C10.7248991 9.11406194 10.1213718 9.71647742 10.1213718 10.4418503L10.1213718 22.3267215C10.1213718 23.0504563 10.7248991 23.6537806 11.4747367 23.6537806L14.2239085 23.6537806C17.6378711 23.6537806 19.9488416 21.3933174 19.9488416 18.0123685L19.9488416 14.7561987C19.9488416 11.3752568 17.6378711 9.11406194 14.2239085 9.11406194z"/>
        <path fill="#FC0" d="M78.9364659,23.9775939 L76.6357059,23.9775939 C74.5884635,23.9775939 72.9225381,22.3184516 72.9225381,20.2784059 L72.9225381,4.12727226 C72.9225381,2.08577032 74.5884635,0.425171613 76.6357059,0.425171613 L92.85276,0.425171613 C94.9007012,0.425171613 96.5671624,2.08577032 96.5671624,4.12727226 L96.5671624,7.48964129 C96.5671624,7.91134452 96.2246612,8.25253935 95.8014071,8.25253935 C95.3778424,8.25253935 95.0353412,7.91134452 95.0353412,7.48964129 L95.0353412,4.12727226 C95.0353412,2.92700129 94.0562894,1.95096774 92.85276,1.95096774 L76.6357059,1.95096774 C75.432852,1.95096774 74.4544059,2.92700129 74.4544059,4.12727226 L74.4544059,20.2784059 C74.4544059,21.4766756 75.432852,22.4517948 76.6357059,22.4517948 L78.9364659,22.4517948 C79.3596424,22.4517948 79.7022212,22.7929866 79.7022212,23.2148764 C79.7022212,23.6364022 79.3596424,23.9775939 78.9364659,23.9775939"/>
        <path fill="#3DB5FF" d="M88.5562376 15.8224026C89.6060259 15.8224026 90.7814471 15.3837523 90.7814471 13.5637626 90.7814471 12.0999019 90.0047435 11.2012877 88.5562376 11.2012877L85.9104141 11.2012877 85.9104141 15.8224026 88.5562376 15.8224026zM83.6852047 10.4276439C83.6852047 9.69534194 84.2937247 9.08910194 85.0497741 9.08910194L88.5562376 9.08910194C91.18032 9.08910194 93.0068118 10.8868723 93.0068118 13.5637626 93.0068118 16.1987535 91.2434471 17.9344034 88.5562376 17.9344034L85.9104141 17.9344034 85.9104141 22.848984C85.9104141 23.4552228 85.3860635 23.9569002 84.7973435 23.9569002 84.1889012 23.9569002 83.6852047 23.4552228 83.6852047 22.848984L83.6852047 10.4276439zM94.9998565 16.0520594C94.9998565 14.2750529 96.3435388 12.9367045 98.1275576 12.9367045 98.65284 12.9367045 99.1773459 12.9997316 99.7026282 13.1041084 100.206247 13.2088568 100.563424 13.6267355 100.563424 14.1282271 100.563424 14.6929394 100.142965 15.1324955 99.5345224 15.1324955 99.4087341 15.1324955 99.3454518 15.1324955 99.1773459 15.0902323 98.8417553 15.0073471 98.4636918 14.9235561 98.1275576 14.9235561 97.6028965 14.9235561 97.1617059 15.3622065 97.1617059 15.8853755L97.1617059 22.8698779C97.1617059 23.4759348 96.6788965 23.9570277 96.0912635 23.9570277 95.4826659 23.9570277 94.9998565 23.4759348 94.9998565 22.8698779L94.9998565 16.0520594zM102.304969 14.0239045C102.304969 13.4176645 102.808666 12.9367587 103.396454 12.9367587 104.005828 12.9367587 104.467828 13.4176645 104.467828 14.0239045L104.467828 22.8699321C104.467828 23.4759893 104.005828 23.9569002 103.396454 23.9569002 102.808666 23.9569002 102.304969 23.4759893 102.304969 22.8699321L102.304969 14.0239045zM103.396454 11.3056645C102.724496 11.3056645 102.179336 10.7617239 102.179336 10.0926426 102.179336 9.42337548 102.724496 8.87943484 103.396454 8.87943484 104.068334 8.87943484 104.614504 9.42337548 104.614504 10.0926426 104.614504 10.7617239 104.068334 11.3056645 103.396454 11.3056645zM118.806134 16.7220163C118.806134 15.7386968 117.987656 14.9235174 117.000452 14.9235174 116.35008 14.9235174 115.720052 15.1324568 115.194614 15.4665445L115.194614 22.8698415C115.194614 23.4758983 114.711805 23.9569913 114.103129 23.9569913 113.515574 23.9569913 113.032687 23.4758983 113.032687 22.8698415L113.032687 16.4500459C113.032687 15.2370194 112.235174 14.9235174 111.311174 14.9235174 110.555125 14.9235174 110.092969 15.0279019 109.4214 15.2160697L109.4214 22.8698415C109.4214 23.4758983 108.938435 23.9569913 108.350647 23.9569913 107.742127 23.9569913 107.259162 23.4758983 107.259162 22.8698415L107.259162 14.8191406C107.259162 14.2542503 107.615562 13.7518452 108.141 13.5429058 109.232096 13.1250194 110.302927 12.9368439 111.520821 12.9368439 112.529068 12.9368439 113.410595 13.2501677 114.061666 13.7941084 114.922461 13.2294039 115.950664 12.9368439 117.000452 12.9368439 119.268056 12.9368439 120.968915 14.6309652 120.968915 16.8886955L120.968915 22.8698415C120.968915 23.4758983 120.486106 23.9569913 119.876732 23.9569913 119.268056 23.9569913 118.806134 23.4758983 118.806134 22.8698415L118.806134 16.7220163zM129.406433 17.4741492C129.406433 15.7386813 128.693012 14.9235019 127.349329 14.9235019 126.026534 14.9235019 125.311948 15.7177316 125.311948 17.4741492L129.406433 17.4741492zM125.311948 19.4608212C125.311948 20.3182637 125.459555 20.882969 125.732407 21.2595004 126.088729 21.7198266 126.634976 21.9701195 127.349329 21.9701195 128.146765 21.9701195 128.902581 21.7404116 129.61608 21.4269089 129.763454 21.3640622 129.910129 21.322529 130.057581 21.322529 130.581854 21.322529 131.086482 21.7611778 131.086482 22.3051169 131.086482 22.7022333 130.918221 23.0579977 130.540158 23.2463545 129.532144 23.7270831 128.461468 23.9569731 127.349329 23.9569731 126.13128 23.9569731 125.081569 23.5596752 124.304633 22.7860281 123.548972 22.0329654 123.150099 20.9875308 123.150099 19.7537396L123.150099 17.119296C123.150099 15.906271 123.548972 14.8604748 124.304633 14.1075948 125.081569 13.3337652 126.13128 12.9368284 127.349329 12.9368284 128.588033 12.9368284 129.637122 13.3337652 130.392939 14.1075948 131.148833 14.8604748 131.569136 15.906271 131.569136 17.119296L131.569136 18.1018839C131.569136 18.8547646 130.959762 19.4608212 130.203868 19.4608212L125.311948 19.4608212z"/>
    </g>
</svg>
